{
	"count": 898607,
	"next": "https://api.rawg.io/api/games?id=3498&key=...&page=2",
	"previous": null,
	"results": [
	{
		"id": 3498,
		"slug": "grand-theft-auto-v",
		"name": "Grand Theft Auto V",
		"released": "2013-09-17",
		"tba": false,
		"background_image": "https://media.rawg.io/media/games/20a/20aa03a10cda45239fe22d035c0ebe64.jpg",
		"rating": 4.47,
		"rating_top": 5,
		"ratings": [
			{
				"id": 5,
				"title": "exceptional",
				"count": 4428,
				"percent": 58.98
			},
			{
				"id": 4,
				"title": "recommended",
				"count": 2461,
				"percent": 32.78
			},
			{
				"id": 3,
				"title": "meh",
				"count": 471,
				"percent": 6.27
			},
			{
				"id": 1,
				"title": "skip",
				"count": 147,
				"percent": 1.96
			}
		],
		"ratings_count": 7371,
		"reviews_text_count": 74,
		"added": 22552,
		"added_by_status": {
			"yet": 560,
			"owned": 12880,
			"beaten": 6489,
			"toplay": 652,
			"dropped": 1192,
			"playing": 779
		},
		"metacritic": 92,
		"playtime": 74,
		"suggestions_count": 450,
		"updated": "2026-04-14T21:26:04",
		"user_game": null,
		"reviews_count": 7507,
		"saturated_color": "0f0f0f",
		"dominant_color": "0f0f0f",
		"platforms": [
			{
				"platform": {
					"id": 187,
					"name": "PlayStation 5",
					"slug": "playstation5",
					"image": null,
					"year_end": null,
					"year_start": 2020,
					"games_count": 1462,
					"image_background": "https://media.rawg.io/media/games/34b/34b1f1850a1c06fd971bc6ab3ac0ce0e.jpg"
				},
				"released_at": "2013-09-17",
				"requirements_en": null,
				"requirements_ru": null
			},
			{
				"platform": {
					"id": 186,
					"name": "Xbox Series S/X",
					"slug": "xbox-series-x",
					"image": null,
					"year_end": null,
					"year_start": 2020,
					"games_count": 1241,
					"image_background": "https://media.rawg.io/media/games/b4a/b4adf80c36e267b35acc3497ed2af19c.jpg"
				},
				"released_at": "2013-09-17",
				"requirements_en": null,
				"requirements_ru": null
			},
			{
				"platform": {
					"id": 16,
					"name": "PlayStation 3",
					"slug": "playstation3",
					"image": null,
					"year_end": null,
					"year_start": null,
					"games_count": 3195,
					"image_background": "https://media.rawg.io/media/games/7fa/7fa0b586293c5861ee32490e953a4996.jpg"
				},
				"released_at": "2013-09-17",
				"requirements_en": null,
				"requirements_ru": null
			},
			{
				"platform": {
					"id": 4,
					"name": "PC",
					"slug": "pc",
					"image": null,
					"year_end": null,
					"year_start": null,
					"games_count": 560648,
					"image_background": "https://media.rawg.io/media/games/736/73619bd336c894d6941d926bfd563946.jpg"
				},
				"released_at": "2013-09-17",
				"requirements_en": {
					"minimum": "Minimum:OS: Windows 10 64 Bit, Windows 8.1 64 Bit, Windows 8 64 Bit, Windows 7 64 Bit Service Pack 1, Windows Vista 64 Bit Service Pack 2* (*NVIDIA video card recommended if running Vista OS)Processor: Intel Core 2 Quad CPU Q6600 @ 2.40GHz (4 CPUs) / AMD Phenom 9850 Quad-Core Processor (4 CPUs) @ 2.5GHzMemory: 4 GB RAMGraphics: NVIDIA 9800 GT 1GB / AMD HD 4870 1GB (DX 10, 10.1, 11)Storage: 72 GB available spaceSound Card: 100% DirectX 10 compatibleAdditional Notes: Over time downloadable content and programming changes will change the system requirements for this game.  Please refer to your hardware manufacturer and www.rockstargames.com/support for current compatibility information. Some system components such as mobile chipsets, integrated, and AGP graphics cards may be incompatible. Unlisted specifications may not be supported by publisher.     Other requirements:  Installation and online play requires log-in to Rockstar Games Social Club (13+) network; internet connection required for activation, online play, and periodic entitlement verification; software installations required including Rockstar Games Social Club platform, DirectX , Chromium, and Microsoft Visual C++ 2008 sp1 Redistributable Package, and authentication software that recognizes certain hardware attributes for entitlement, digital rights management, system, and other support purposes.     SINGLE USE SERIAL CODE REGISTRATION VIA INTERNET REQUIRED; REGISTRATION IS LIMITED TO ONE ROCKSTAR GAMES SOCIAL CLUB ACCOUNT (13+) PER SERIAL CODE; ONLY ONE PC LOG-IN ALLOWED PER SOCIAL CLUB ACCOUNT AT ANY TIME; SERIAL CODE(S) ARE NON-TRANSFERABLE ONCE USED; SOCIAL CLUB ACCOUNTS ARE NON-TRANSFERABLE.  Partner Requirements:  Please check the terms of service of this site before purchasing this software.",
					"recommended": "Recommended:OS: Windows 10 64 Bit, Windows 8.1 64 Bit, Windows 8 64 Bit, Windows 7 64 Bit Service Pack 1Processor: Intel Core i5 3470 @ 3.2GHz (4 CPUs) / AMD X8 FX-8350 @ 4GHz (8 CPUs)Memory: 8 GB RAMGraphics: NVIDIA GTX 660 2GB / AMD HD 7870 2GBStorage: 72 GB available spaceSound Card: 100% DirectX 10 compatibleAdditional Notes:"
				},
				"requirements_ru": null
			},
			{
				"platform": {
					"id": 18,
					"name": "PlayStation 4",
					"slug": "playstation4",
					"image": null,
					"year_end": null,
					"year_start": null,
					"games_count": 6988,
					"image_background": "https://media.rawg.io/media/games/b45/b45575f34285f2c4479c9a5f719d972e.jpg"
				},
				"released_at": "2013-09-17",
				"requirements_en": null,
				"requirements_ru": null
			},
			{
				"platform": {
					"id": 14,
					"name": "Xbox 360",
					"slug": "xbox360",
					"image": null,
					"year_end": null,
					"year_start": null,
					"games_count": 2828,
					"image_background": "https://media.rawg.io/media/games/5c0/5c0dd63002cb23f804aab327d40ef119.jpg"
				},
				"released_at": "2013-09-17",
				"requirements_en": null,
				"requirements_ru": null
			},
			{
				"platform": {
					"id": 1,
					"name": "Xbox One",
					"slug": "xbox-one",
					"image": null,
					"year_end": null,
					"year_start": null,
					"games_count": 5739,
					"image_background": "https://media.rawg.io/media/games/511/5118aff5091cb3efec399c808f8c598f.jpg"
				},
				"released_at": "2013-09-17",
				"requirements_en": null,
				"requirements_ru": null
			}
		],
		"parent_platforms": [
			{
				"platform": {
					"id": 1,
					"name": "PC",
					"slug": "pc"
				}
			},
			{
				"platform": {
					"id": 2,
					"name": "PlayStation",
					"slug": "playstation"
				}
			},
			{
				"platform": {
					"id": 3,
					"name": "Xbox",
					"slug": "xbox"
				}
			}
		],
		"genres": [
			{
				"id": 4,
				"name": "Action",
				"slug": "action",
				"games_count": 191553,
				"image_background": "https://media.rawg.io/media/games/73e/73eecb8909e0c39fb246f457b5d6cbbe.jpg"
			}
		],
		"stores": [
			{
				"id": 290376,
				"store": {
					"id": 1,
					"name": "Steam",
					"slug": "steam",
					"domain": "store.steampowered.com",
					"games_count": 123289,
					"image_background": "https://media.rawg.io/media/games/34b/34b1f1850a1c06fd971bc6ab3ac0ce0e.jpg"
				}
			},
			{
				"id": 290375,
				"store": {
					"id": 3,
					"name": "PlayStation Store",
					"slug": "playstation-store",
					"domain": "store.playstation.com",
					"games_count": 8075,
					"image_background": "https://media.rawg.io/media/games/021/021c4e21a1824d2526f925eff6324653.jpg"
				}
			},
			{
				"id": 438095,
				"store": {
					"id": 11,
					"name": "Epic Games",
					"slug": "epic-games",
					"domain": "epicgames.com",
					"games_count": 1451,
					"image_background": "https://media.rawg.io/media/games/1bd/1bd2657b81eb0c99338120ad444b24ff.jpg"
				}
			},
			{
				"id": 290377,
				"store": {
					"id": 7,
					"name": "Xbox 360 Store",
					"slug": "xbox360",
					"domain": "marketplace.xbox.com",
					"games_count": 1915,
					"image_background": "https://media.rawg.io/media/games/bc0/bc06a29ceac58652b684deefe7d56099.jpg"
				}
			},
			{
				"id": 290378,
				"store": {
					"id": 2,
					"name": "Xbox Store",
					"slug": "xbox-store",
					"domain": "microsoft.com",
					"games_count": 4938,
					"image_background": "https://media.rawg.io/media/games/34b/34b1f1850a1c06fd971bc6ab3ac0ce0e.jpg"
				}
			}
		],
		"clip": null,
		"tags": [
			{
				"id": 31,
				"name": "Singleplayer",
				"slug": "singleplayer",
				"language": "eng",
				"games_count": 250826,
				"image_background": "https://media.rawg.io/media/games/618/618c2031a07bbff6b4f611f10b6bcdbc.jpg"
			},
			{
				"id": 40847,
				"name": "Steam Achievements",
				"slug": "steam-achievements",
				"language": "eng",
				"games_count": 51709,
				"image_background": "https://media.rawg.io/media/games/b45/b45575f34285f2c4479c9a5f719d972e.jpg"
			},
			{
				"id": 7,
				"name": "Multiplayer",
				"slug": "multiplayer",
				"language": "eng",
				"games_count": 42553,
				"image_background": "https://media.rawg.io/media/games/157/15742f2f67eacff546738e1ab5c19d20.jpg"
			},
			{
				"id": 40836,
				"name": "Full controller support",
				"slug": "full-controller-support",
				"language": "eng",
				"games_count": 24144,
				"image_background": "https://media.rawg.io/media/games/16b/16b1b7b36e2042d1128d5a3e852b3b2f.jpg"
			},
			{
				"id": 13,
				"name": "Atmospheric",
				"slug": "atmospheric",
				"language": "eng",
				"games_count": 39707,
				"image_background": "https://media.rawg.io/media/games/562/562553814dd54e001a541e4ee83a591c.jpg"
			},
			{
				"id": 42,
				"name": "Great Soundtrack",
				"slug": "great-soundtrack",
				"language": "eng",
				"games_count": 3450,
				"image_background": "https://media.rawg.io/media/games/bc0/bc06a29ceac58652b684deefe7d56099.jpg"
			},
			{
				"id": 24,
				"name": "RPG",
				"slug": "rpg",
				"language": "eng",
				"games_count": 26624,
				"image_background": "https://media.rawg.io/media/games/26d/26d4437715bee60138dab4a7c8c59c92.jpg"
			},
			{
				"id": 18,
				"name": "Co-op",
				"slug": "co-op",
				"language": "eng",
				"games_count": 14391,
				"image_background": "https://media.rawg.io/media/games/6fc/6fcf4cd3b17c288821388e6085bb0fc9.jpg"
			},
			{
				"id": 36,
				"name": "Open World",
				"slug": "open-world",
				"language": "eng",
				"games_count": 9265,
				"image_background": "https://media.rawg.io/media/games/490/49016e06ae2103881ff6373248843069.jpg"
			},
			{
				"id": 411,
				"name": "cooperative",
				"slug": "cooperative",
				"language": "eng",
				"games_count": 6588,
				"image_background": "https://media.rawg.io/media/games/2ba/2bac0e87cf45e5b508f227d281c9252a.jpg"
			},
			{
				"id": 8,
				"name": "First-Person",
				"slug": "first-person",
				"language": "eng",
				"games_count": 37394,
				"image_background": "https://media.rawg.io/media/games/d82/d82990b9c67ba0d2d09d4e6fa88885a7.jpg"
			},
			{
				"id": 149,
				"name": "Third Person",
				"slug": "third-person",
				"language": "eng",
				"games_count": 14710,
				"image_background": "https://media.rawg.io/media/games/5c0/5c0dd63002cb23f804aab327d40ef119.jpg"
			},
			{
				"id": 4,
				"name": "Funny",
				"slug": "funny",
				"language": "eng",
				"games_count": 28841,
				"image_background": "https://media.rawg.io/media/games/20a/20aa03a10cda45239fe22d035c0ebe64.jpg"
			},
			{
				"id": 37,
				"name": "Sandbox",
				"slug": "sandbox",
				"language": "eng",
				"games_count": 8513,
				"image_background": "https://media.rawg.io/media/games/13a/13a528ac9cf48bbb6be5d35fe029336d.jpg"
			},
			{
				"id": 123,
				"name": "Comedy",
				"slug": "comedy",
				"language": "eng",
				"games_count": 14864,
				"image_background": "https://media.rawg.io/media/games/ffe/ffed87105b14f5beff72ff44a7793fd5.jpg"
			},
			{
				"id": 150,
				"name": "Third-Person Shooter",
				"slug": "third-person-shooter",
				"language": "eng",
				"games_count": 4168,
				"image_background": "https://media.rawg.io/media/games/f87/f87457e8347484033cb34cde6101d08d.jpg"
			},
			{
				"id": 62,
				"name": "Moddable",
				"slug": "moddable",
				"language": "eng",
				"games_count": 1136,
				"image_background": "https://media.rawg.io/media/games/d58/d588947d4286e7b5e0e12e1bea7d9844.jpg"
			},
			{
				"id": 144,
				"name": "Crime",
				"slug": "crime",
				"language": "eng",
				"games_count": 3269,
				"image_background": "https://media.rawg.io/media/games/6cc/6cc68fa183b905ac9d85efb9797776f6.jpg"
			},
			{
				"id": 62349,
				"name": "vr mod",
				"slug": "vr-mod",
				"language": "eng",
				"games_count": 17,
				"image_background": "https://media.rawg.io/media/screenshots/1bb/1bb3f78f0fe43b5d5ca2f3da5b638840.jpg"
			}
		],
		"esrb_rating": {
			"id": 4,
			"name": "Mature",
			"slug": "mature"
		},
		"short_screenshots": [
			{
				"id": -1,
				"image": "https://media.rawg.io/media/games/20a/20aa03a10cda45239fe22d035c0ebe64.jpg"
			},
			{
				"id": 1827223,
				"image": "https://media.rawg.io/media/screenshots/f95/f9518b1d99210c0cae21fc09e95b4e31.jpg"
			},
			{
				"id": 1827225,
				"image": "https://media.rawg.io/media/screenshots/a5c/a5c95ea539c87d5f538763e16e18fb99.jpg"
			},
			{
				"id": 1827226,
				"image": "https://media.rawg.io/media/screenshots/a7e/a7e990bc574f4d34e03b5926361d1ee7.jpg"
			},
			{
				"id": 1827228,
				"image": "https://media.rawg.io/media/screenshots/eb0/eb0a2c0de9194a635fc0cd04f5a29ae7.jpg"
			},
			{
				"id": 1827229,
				"image": "https://media.rawg.io/media/screenshots/ec7/ec7f05fb82290fea9647b7879fe9a6bf.jpg"
			},
			{
				"id": 1827230,
				"image": "https://media.rawg.io/media/screenshots/260/260559fbefce0b36c66ae5e280c7d774.jpg"
			}
		]
	}]
}
